{
	"info": {
		"_postman_id": "5e913a16-6869-4224-8ffc-a7c037d445d8",
		"name": "sobank",
		"schema": "https://schema.getpostman.com/json/collection/v2.1.0/collection.json"
	},
	"item": [
		{
			"name": "customer",
			"request": {
				"method": "GET",
				"header": [],
				"url": {
					"raw": "http://localhost:8000/webbank/customer",
					"protocol": "http",
					"host": [
						"localhost"
					],
					"port": "8000",
					"path": [
						"webbank",
						"customer"
					]
				},
				"description": "<>"
			},
			"response": []
		},
		{
			"name": "customer",
			"request": {
				"method": "POST",
				"header": [],
				"body": {
					"mode": "raw",
					"raw": "{\r\n    \"first_name\": \"Bilbo\",\r\n    \"last_name\": \"Baggins\",\r\n    \"date_of_birth\": \"1960-12-24\",\r\n    \"address\": \"500 Buckland Road, Matamata 3472, New-Zealand\"\r\n}",
					"options": {
						"raw": {
							"language": "json"
						}
					}
				},
				"url": {
					"raw": "http://localhost:8000/webbank/customer",
					"protocol": "http",
					"host": [
						"localhost"
					],
					"port": "8000",
					"path": [
						"webbank",
						"customer"
					]
				},
				"description": "<>"
			},
			"response": []
		},
		{
			"name": "customer - type error",
			"request": {
				"method": "POST",
				"header": [],
				"body": {
					"mode": "raw",
					"raw": "{\r\n    \"first_name\": \"Bilbo\",\r\n    \"last_name\": 1234,\r\n    \"date_of_birth\": \"1960-12-24\",\r\n    \"address\": \"500 Buckland Road, Matamata 3472, New-Zealand\"\r\n}",
					"options": {
						"raw": {
							"language": "json"
						}
					}
				},
				"url": {
					"raw": "http://localhost:8000/webbank/customer",
					"protocol": "http",
					"host": [
						"localhost"
					],
					"port": "8000",
					"path": [
						"webbank",
						"customer"
					]
				},
				"description": "<>"
			},
			"response": []
		},
		{
			"name": "customer",
			"request": {
				"method": "PUT",
				"header": [],
				"body": {
					"mode": "raw",
					"raw": "{\r\n    \"id\": 1,\r\n    \"first_name\": \"Frodo\",\r\n    \"last_name\": \"Baggins\",\r\n    \"date_of_birth\": \"1980-12-24\",\r\n    \"address\": \"501 Buckland Road, Matamata 3472, New-Zealand\"\r\n}",
					"options": {
						"raw": {
							"language": "json"
						}
					}
				},
				"url": {
					"raw": "http://localhost:8000/webbank/customer",
					"protocol": "http",
					"host": [
						"localhost"
					],
					"port": "8000",
					"path": [
						"webbank",
						"customer"
					]
				},
				"description": "<>"
			},
			"response": []
		},
		{
			"name": "customer - wrong id",
			"request": {
				"method": "PUT",
				"header": [],
				"body": {
					"mode": "raw",
					"raw": "{\r\n    \"id\": 10000,\r\n    \"first_name\": \"Frodo\",\r\n    \"last_name\": \"Baggins\",\r\n    \"date_of_birth\": \"1980-12-24\",\r\n    \"address\": \"501 Buckland Road, Matamata 3472, New-Zealand\"\r\n}",
					"options": {
						"raw": {
							"language": "json"
						}
					}
				},
				"url": {
					"raw": "http://localhost:8000/webbank/customer",
					"protocol": "http",
					"host": [
						"localhost"
					],
					"port": "8000",
					"path": [
						"webbank",
						"customer"
					]
				},
				"description": "<>"
			},
			"response": []
		},
		{
			"name": "customer - value error",
			"request": {
				"method": "PUT",
				"header": [],
				"body": {
					"mode": "raw",
					"raw": "{\r\n    \"id\": 1,\r\n    \"first_name\": \"Frodo\",\r\n    \"last_name\": \"Baggins\",\r\n    \"date_of_birth\": \"1980-50-24\",\r\n    \"address\": \"501 Buckland Road, Matamata 3472, New-Zealand\"\r\n}",
					"options": {
						"raw": {
							"language": "json"
						}
					}
				},
				"url": {
					"raw": "http://localhost:8000/webbank/customer",
					"protocol": "http",
					"host": [
						"localhost"
					],
					"port": "8000",
					"path": [
						"webbank",
						"customer"
					]
				},
				"description": "<>"
			},
			"response": []
		},
		{
			"name": "account",
			"request": {
				"method": "GET",
				"header": [],
				"url": {
					"raw": "http://localhost:8000/webbank/account",
					"protocol": "http",
					"host": [
						"localhost"
					],
					"port": "8000",
					"path": [
						"webbank",
						"account"
					]
				},
				"description": "<>"
			},
			"response": []
		},
		{
			"name": "account",
			"request": {
				"method": "POST",
				"header": [],
				"body": {
					"mode": "raw",
					"raw": "{\r\n    \"owner_id\": 1,\r\n    \"type\": \"Credit\",\r\n    \"balance\": 1000.0\r\n}",
					"options": {
						"raw": {
							"language": "json"
						}
					}
				},
				"url": {
					"raw": "http://localhost:8000/webbank/account",
					"protocol": "http",
					"host": [
						"localhost"
					],
					"port": "8000",
					"path": [
						"webbank",
						"account"
					]
				},
				"description": "<>"
			},
			"response": []
		},
		{
			"name": "account - wrong owner id",
			"request": {
				"method": "POST",
				"header": [],
				"body": {
					"mode": "raw",
					"raw": "{\r\n    \"owner_id\": 10000,\r\n    \"type\": \"Credit\",\r\n    \"balance\": 1000.0\r\n}",
					"options": {
						"raw": {
							"language": "json"
						}
					}
				},
				"url": {
					"raw": "http://localhost:8000/webbank/account",
					"protocol": "http",
					"host": [
						"localhost"
					],
					"port": "8000",
					"path": [
						"webbank",
						"account"
					]
				},
				"description": "<>"
			},
			"response": []
		},
		{
			"name": "account - negative balance",
			"request": {
				"method": "POST",
				"header": [],
				"body": {
					"mode": "raw",
					"raw": "{\r\n    \"owner_id\": 1,\r\n    \"type\": \"Credit\",\r\n    \"balance\": -1000.0\r\n}",
					"options": {
						"raw": {
							"language": "json"
						}
					}
				},
				"url": {
					"raw": "http://localhost:8000/webbank/account",
					"protocol": "http",
					"host": [
						"localhost"
					],
					"port": "8000",
					"path": [
						"webbank",
						"account"
					]
				},
				"description": "<>"
			},
			"response": []
		},
		{
			"name": "transfer",
			"request": {
				"method": "PUT",
				"header": [],
				"body": {
					"mode": "raw",
					"raw": "{\r\n    \"account_origin\": 1,\r\n    \"account_destination\": 2,\r\n    \"amount\": 100.0\r\n}",
					"options": {
						"raw": {
							"language": "json"
						}
					}
				},
				"url": {
					"raw": "http://localhost:8000/webbank/transfer",
					"protocol": "http",
					"host": [
						"localhost"
					],
					"port": "8000",
					"path": [
						"webbank",
						"transfer"
					]
				},
				"description": "<>"
			},
			"response": []
		},
		{
			"name": "transfer - wrong origin account",
			"request": {
				"method": "PUT",
				"header": [],
				"body": {
					"mode": "raw",
					"raw": "{\r\n    \"account_origin\": 10000,\r\n    \"account_destination\": 2,\r\n    \"amount\": 100.0\r\n}",
					"options": {
						"raw": {
							"language": "json"
						}
					}
				},
				"url": {
					"raw": "http://localhost:8000/webbank/transfer",
					"protocol": "http",
					"host": [
						"localhost"
					],
					"port": "8000",
					"path": [
						"webbank",
						"transfer"
					]
				},
				"description": "<>"
			},
			"response": []
		},
		{
			"name": "transfer - insufficient funds",
			"request": {
				"method": "PUT",
				"header": [],
				"body": {
					"mode": "raw",
					"raw": "{\r\n    \"account_origin\": 1,\r\n    \"account_destination\": 2,\r\n    \"amount\": 1000000.0\r\n}",
					"options": {
						"raw": {
							"language": "json"
						}
					}
				},
				"url": {
					"raw": "http://localhost:8000/webbank/transfer",
					"protocol": "http",
					"host": [
						"localhost"
					],
					"port": "8000",
					"path": [
						"webbank",
						"transfer"
					]
				},
				"description": "<>"
			},
			"response": []
		}
	]
}